<svg xmlns="http://www.w3.org/2000/svg" xmlns:xlink="http://www.w3.org/1999/xlink" width="40" height="40" viewBox="0 0 40 40">
    <defs>
        <circle id="a" cx="20" cy="20" r="20"/>
    </defs>
    <g fill="none" fill-rule="evenodd" opacity=".8">
        <mask id="b" fill="#fff">
            <use xlink:href="#a"/>
        </mask>
        <use fill="#374054" xlink:href="#a"/>
        <path fill="#FFF" fill-rule="nonzero" d="M31.726 16.132a.504.504 0 0 0-.407-.204h-18.31l-1.258-4.657a.497.497 0 0 0-.483-.362H8.681c-.275 0-.5.217-.5.484 0 .268.225.485.5.485h2.202l3.956 14.654a.497.497 0 0 0 .483.361h12.547c.276 0 .5-.217.5-.484a.492.492 0 0 0-.5-.484H15.707l-.597-2.21h13.751c.212 0 .401-.13.471-.325l2.458-6.818a.472.472 0 0 0-.064-.44zm-3.22 6.614H14.85l-1.579-5.849h17.345l-2.108 5.849zm-10.191 5.076c-1.136 0-2.06.896-2.06 1.998 0 1.102.924 1.998 2.06 1.998 1.135 0 2.06-.896 2.06-1.998 0-1.102-.925-1.998-2.06-1.998zm0 3.027c-.586 0-1.062-.461-1.062-1.029 0-.567.476-1.03 1.062-1.03.585 0 1.06.463 1.06 1.03 0 .568-.475 1.03-1.06 1.03zm6.406-3.027c-1.136 0-2.06.896-2.06 1.998 0 1.102.924 1.998 2.06 1.998 1.135 0 2.06-.896 2.06-1.998 0-1.102-.925-1.998-2.06-1.998zm0 3.027c-.586 0-1.062-.461-1.062-1.029 0-.567.476-1.03 1.062-1.03.585 0 1.06.463 1.06 1.03 0 .568-.475 1.03-1.06 1.03z" mask="url(#b)"/>
    </g>
</svg>
