<svg xmlns="http://www.w3.org/2000/svg" xmlns:xlink="http://www.w3.org/1999/xlink" width="24" height="19" viewBox="0 0 24 19">
    <defs>
        <path id="a" d="M0 0h36v36H0z"/>
    </defs>
    <g fill="none" fill-rule="evenodd" transform="translate(-6 -9)">
        <mask id="b" fill="#fff">
            <use xlink:href="#a"/>
        </mask>
        <path fill="#969DA6" fill-rule="nonzero" d="M28.957 11.036H15.043A1.03 1.03 0 0 1 14 10.018 1.03 1.03 0 0 1 15.043 9h13.914A1.03 1.03 0 0 1 30 10.018a1.03 1.03 0 0 1-1.043 1.018zm0 8.482H15.043A1.03 1.03 0 0 1 14 18.5a1.03 1.03 0 0 1 1.043-1.018h13.914A1.03 1.03 0 0 1 30 18.5a1.03 1.03 0 0 1-1.043 1.018zm0 8.482H15.043A1.03 1.03 0 0 1 14 26.982a1.03 1.03 0 0 1 1.043-1.018h13.914A1.03 1.03 0 0 1 30 26.982 1.03 1.03 0 0 1 28.957 28zM9.827 11.036H7.042A1.03 1.03 0 0 1 6 10.018 1.03 1.03 0 0 1 7.043 9h2.783a1.03 1.03 0 0 1 1.044 1.018 1.03 1.03 0 0 1-1.044 1.018zm0 8.482H7.042A1.03 1.03 0 0 1 6 18.5a1.03 1.03 0 0 1 1.043-1.018h2.783A1.03 1.03 0 0 1 10.87 18.5a1.03 1.03 0 0 1-1.044 1.018zm0 8.482H7.042A1.03 1.03 0 0 1 6 26.982a1.03 1.03 0 0 1 1.043-1.018h2.783a1.03 1.03 0 0 1 1.044 1.018A1.03 1.03 0 0 1 9.826 28z" mask="url(#b)"/>
    </g>
</svg>
