<svg xmlns="http://www.w3.org/2000/svg" xmlns:xlink="http://www.w3.org/1999/xlink" width="36" height="36" viewBox="0 0 36 36">
    <defs>
        <circle id="a" cx="18" cy="18" r="18"/>
    </defs>
    <g fill="none" fill-rule="evenodd">
        <mask id="b" fill="#fff">
            <use xlink:href="#a"/>
        </mask>
        <use fill="#969DA6" xlink:href="#a"/>
        <path fill="#DCDDDE" fill-rule="nonzero" d="M17.81 6.577L7.68 10.65a.522.522 0 0 0-.316.477v13.748c0 .2.131.394.316.47l10.13 4.073a.51.51 0 0 0 .38 0l10.13-4.074a.522.522 0 0 0 .316-.469V11.127a.522.522 0 0 0-.316-.477L18.19 6.577a.602.602 0 0 0-.38 0zM18 7.603l8.76 3.517-3.695 1.487-8.76-3.516L18 7.603zM12.935 9.64l8.76 3.524L18 14.644 9.24 11.12l3.695-1.48zm-4.558 2.235l9.117 3.668v12.642l-9.117-3.66v-12.65zm19.246 0v12.65l-4.052 1.631v-3.318a.53.53 0 0 0-.561-.517.527.527 0 0 0-.452.517v3.724l-4.052 1.623V15.543l4.052-1.631v3.326a.528.528 0 0 0 .507.516c.268 0 .51-.247.506-.516v-3.732l4.052-1.63z" mask="url(#b)"/>
    </g>
</svg>
