<svg xmlns="http://www.w3.org/2000/svg" xmlns:xlink="http://www.w3.org/1999/xlink" width="20" height="25" viewBox="0 0 20 25">
    <defs>
        <path id="a" d="M0 0h32v32H0z"/>
    </defs>
    <g fill="none" fill-rule="evenodd" transform="matrix(1 0 0 -1 -6 29)">
        <mask id="b" fill="#fff">
            <use xlink:href="#a"/>
        </mask>
        <path fill="#0BA360" fill-rule="nonzero" d="M13.813 4c-.842 0-1.563.67-1.563 1.562V6.5h-5C6.568 6.5 6 7.068 6 7.75v3.125c0 .682.568 1.25 1.25 1.25h.625V27.75c0 .682.568 1.25 1.25 1.25h13.75c.682 0 1.25-.568 1.25-1.25V12.125h.625c.682 0 1.25-.568 1.25-1.25V7.75c0-.682-.568-1.25-1.25-1.25h-5v-.938C19.75 4.67 19.029 4 18.187 4h-4.375zm0 1.25h4.374c.104 0 .313.166.313.312V6.5h-5v-.938c0-.146.21-.312.313-.312zM7.25 7.75h17.5v3.125H7.25V7.75zm1.875 4.375h13.75V27.75H9.125V12.125zm3.125 2.5a.625.625 0 0 0-.625.625v9.375a.625.625 0 1 0 1.25 0V15.25a.625.625 0 0 0-.625-.625zm3.75 0a.625.625 0 0 0-.625.625v9.375a.625.625 0 1 0 1.25 0V15.25a.625.625 0 0 0-.625-.625zm3.75 0a.625.625 0 0 0-.625.625v9.375a.625.625 0 1 0 1.25 0V15.25a.625.625 0 0 0-.625-.625z" mask="url(#b)" transform="matrix(1 0 0 -1 0 33)"/>
    </g>
</svg>
