[
  {
    "id": 0,
    "title": "Set up your products",
    "desc": "View our line of products to launch your business.",
    "duration": "10 SEC",
    "url": "",
    "urlLabel": "View introductory packages"
  },
  {
    "id": 1,
    "title": "Connect a social account",
    "desc": "So you can quickly post to your social account.",
    "duration": "20 SEC",
    "url": "",
    "urlLabel": "Connect social account"
  },
  {
    "id": 2,
    "title": "ageLOC Me",
    "desc": "Advanced science gives you a personalized regimen based on you, and your preferences.",
    "duration": "30 SEC",
    "url": "",
    "urlLabel": "Take Assesment"
  },
  {
    "id": 3,
    "title": "title",
    "desc": "description",
    "duration": "40 SEC",
    "url": "",
    "urlLabel": "label"
  },
  {
    "id": 4,
    "title": "title 4",
    "desc": "description",
    "duration": "50 SEC",
    "url": "",
    "urlLabel": "label"
  }
]
